{
    "project_type": "javascript",

    "debugMode" : 1,
    "showFPS" : true,
    "frameRate" : 60,
    "id" : "gameCanvas",
    "renderMode" : 0,
    "engineDir":"frameworks/cocos2d-html5",

    "modules" : ["cocos2d"],

    "jsList" : [
        "src/resource.js",
        "src/FarmLayer.js",
        "src/StartScene.js",
        "src/Player.js",
        "src/ChickenCorral.js",
        "src/CowCorral.js",
        "src/LeftArrow.js",
        "src/RightArrow.js",
        "src/FactoryLayer.js",
        "src/EggMachine.js",
        "src/Tick.js",
        "src/Chicken.js",
        "src/Egg.js",
        "src/ChickFood.js",
        "src/Store.js",
        "src/StoreBut.js",
        "src/SaleBut.js",
        "src/StartLayer.js",
        "src/Cow.js",
        "src/CowFood.js",
        "src/Milk.js",
        "src/LevelPage.js",
        "src/LevelBut.js",
        "src/Notification.js"
    ]
}
